{
  "methods": [
    {
      "name": "getLeaderboard",
      "httpMethod": "GET",
      "resource": "leaderboard"
    },
    {
      "name": "deletePlayer",
      "httpMethod": "DELETE",
      "resource": "{player}"
    },
    {
      "name": "playerAction",
      "httpMethod": "POST",
      "resource": "{player}"
    }
  ],
  "stages": [
    {
      "name": "prod"
    }
  ],
  "lambdaURI": "arn:aws:apigateway:eu-central-1:lambda:path/2015-03-31/functions/arn:aws:lambda:eu-central-1:606816213512:function",
  "Role": "arn:aws:iam::606816213512:role/lambda"
}
